bufferFrames,blockDuration,filterSize,processTime,processTimeMedian
128,0.00290249,128,0.000159823,0.000157
128,0.00290249,256,0.000243924,0.000261
128,0.00290249,512,0.000481284,0.000513
128,0.00290249,1024,0.000811059,0.00096
128,0.00290249,2048,0.00118775,0.001113
128,0.00290249,4096,0.00140823,0.001198
128,0.00290249,8192,0.0024303,0.002363
128,0.00290249,16384,0.00545882,0.005353
128,0.00290249,32768,0.0123502,0.012257
128,0.00290249,65536,0.0268103,0.026756
256,0.00580499,128,0.000341321,0.000357
256,0.00580499,256,0.000319737,0.000314
256,0.00580499,512,0.00055193,0.00062
256,0.00580499,1024,0.000957039,0.001175
256,0.00580499,2048,0.00209793,0.002433
256,0.00580499,4096,0.00256087,0.002422
256,0.00580499,8192,0.00299458,0.002842
256,0.00580499,16384,0.00543704,0.005315
256,0.00580499,32768,0.0124693,0.012326
256,0.00580499,65536,0.0269511,0.02681
512,0.01161,128,0.00059705,0.000618
512,0.01161,256,0.000581765,0.000622
512,0.01161,512,0.00064959,0.000639
512,0.01161,1024,0.00127627,0.001269
512,0.01161,2048,0.00246352,0.002581
512,0.01161,4096,0.00537121,0.005519
512,0.01161,8192,0.0052543,0.005005
512,0.01161,16384,0.00889955,0.008851
512,0.01161,32768,0.0206282,0.020549
512,0.01161,65536,0.0444989,0.044541
1024,0.02322,128,0.00120915,0.001249
1024,0.02322,256,0.00109386,0.00125
1024,0.02322,512,0.00108688,0.001249
1024,0.02322,1024,0.000890287,0.001149
1024,0.02322,2048,0.00209507,0.002449
1024,0.02322,4096,0.00439221,0.005398
1024,0.02322,8192,0.00740595,0.00732
1024,0.02322,16384,0.0105238,0.010143
1024,0.02322,32768,0.020741,0.020597
1024,0.02322,65536,0.0447718,0.044658
2048,0.0464399,128,0.00234261,0.002441
2048,0.0464399,256,0.00246644,0.002555
2048,0.0464399,512,0.0021884,0.002568
2048,0.0464399,1024,0.0019939,0.002339
2048,0.0464399,2048,0.00222231,0.002573
2048,0.0464399,4096,0.00455339,0.005464
2048,0.0464399,8192,0.00887866,0.010855
2048,0.0464399,16384,0.0144662,0.012542
2048,0.0464399,32768,0.0193459,0.016258
2048,0.0464399,65536,0.0289155,0.026922
4096,0.0928798,128,0.00385857,0.005323
4096,0.0928798,256,0.00472574,0.005477
4096,0.0928798,512,0.00428935,0.005435
4096,0.0928798,1024,0.00459427,0.005411
4096,0.0928798,2048,0.00459466,0.005465
4096,0.0928798,4096,0.00544386,0.005642
4096,0.0928798,8192,0.0109652,0.012016
4096,0.0928798,16384,0.0206987,0.026449
4096,0.0928798,32768,0.0293434,0.031086
4096,0.0928798,65536,0.0393809,0.032901
8192,0.18576,128,0.0115264,0.0118
8192,0.18576,256,0.0114072,0.011813
8192,0.18576,512,0.0103354,0.011822
8192,0.18576,1024,0.00993244,0.012006
8192,0.18576,2048,0.00850824,0.011663
8192,0.18576,4096,0.0112915,0.012081
8192,0.18576,8192,0.0112885,0.012018
8192,0.18576,16384,0.0260934,0.026883
8192,0.18576,32768,0.0441581,0.046136
8192,0.18576,65536,0.0643312,0.068397
16384,0.371519,128,0.0229111,0.026682
16384,0.371519,256,0.0210058,0.025651
16384,0.371519,512,0.0205981,0.024254
16384,0.371519,1024,0.0213919,0.026591
16384,0.371519,2048,0.0220298,0.027208
16384,0.371519,4096,0.0194089,0.023952
16384,0.371519,8192,0.0153941,0.009609
16384,0.371519,16384,0.0234336,0.026564
16384,0.371519,32768,0.0357486,0.04242
16384,0.371519,65536,0.064355,0.069388
32768,0.743039,128,0.0354897,0.043297
32768,0.743039,256,0.0350263,0.041052
32768,0.743039,512,0.0383413,0.044824
32768,0.743039,1024,0.034949,0.043928
32768,0.743039,2048,0.0392531,0.044981
32768,0.743039,4096,0.0380779,0.045966
32768,0.743039,8192,0.0328091,0.041194
32768,0.743039,16384,0.0407322,0.04575
32768,0.743039,32768,0.0419818,0.04597
32768,0.743039,65536,0.0649946,0.070197
65536,1.48608,128,0.0677474,0.068422
65536,1.48608,256,0.0686964,0.070944
65536,1.48608,512,0.0540114,0.051198
65536,1.48608,1024,0.0603029,0.069152
65536,1.48608,2048,0.0708807,0.071302
65536,1.48608,4096,0.068203,0.07143
65536,1.48608,8192,0.0625179,0.069444
65536,1.48608,16384,0.0645293,0.064561
65536,1.48608,32768,0.0599894,0.065624
65536,1.48608,65536,0.0484141,0.06092
